[gd_scene load_steps=2 format=2]

[ext_resource path="res://gui/challenge.gd" type="Script" id=1]

[node name="ChallengeGUI" type="VBoxContainer"]
script = ExtResource( 1 )
__meta__ = {
"_edit_use_anchors_": false
}

[node name="HBoxContainer" type="HBoxContainer" parent="."]
margin_right = 174.0
margin_bottom = 24.0

[node name="Label" type="Label" parent="HBoxContainer"]
margin_top = 5.0
margin_right = 84.0
margin_bottom = 19.0
text = "Fight against:"

[node name="ChallengedID" type="LineEdit" parent="HBoxContainer"]
margin_left = 88.0
margin_right = 146.0
margin_bottom = 24.0
caret_blink = true
caret_blink_speed = 0.5

[node name="SuccessCheckbox" type="CheckBox" parent="HBoxContainer"]
margin_left = 150.0
margin_right = 174.0
margin_bottom = 24.0
disabled = true

[node name="ChallengeButton" type="Button" parent="."]
margin_top = 28.0
margin_right = 174.0
margin_bottom = 48.0
text = "Challenge"
[connection signal="pressed" from="ChallengeButton" to="." method="_on_ChallengeButton_pressed"]
