[gd_scene load_steps=2 format=2]

[sub_resource type="GDScript" id=1]
script/source = "extends Panel

onready var logContainer = $ScrollContainer/VBoxContainer

func _ready():
	
	network.connect(\"monster_info_received\", self, \"_onMonsterInfoReceived\")
	network.connect(\"battle_result_received\", self, \"_onBattleResultReceived\")

func _input(event):
	if event.is_action_pressed(\"showLog\"):
		visible = !visible

func _onMonsterInfoReceived(data):
	pass
	
func _onBattleResultReceived(data):
	match data.resultType:
		\"finished\":
			_addEntry(\"Battle is over\")
			_addEntry(str(data.result.winnerIndex) + \" has won\")
		\"nextTurn\":
			_addEntry(\"Next turn\")
		_:
			_addEntry(to_json(data))

func _addEntry(text):
	var n = Label.new()
	n.text = text
	logContainer.add_child(n)
"

[node name="Log" type="Panel"]
anchor_right = 1.0
anchor_bottom = 1.0
script = SubResource( 1 )
__meta__ = {
"_edit_use_anchors_": false
}

[node name="ScrollContainer" type="ScrollContainer" parent="."]
anchor_right = 1.0
anchor_bottom = 1.0

[node name="VBoxContainer" type="VBoxContainer" parent="ScrollContainer"]
